{
  "endpoints": [
    {
      "brand": "foodora",
      "countries": [
        {
          "country_code": "at",
          "url": "https://logistics-st.foodora.at"
        },
        {
          "country_code": "au",
          "url": "https://logistics-st.foodora.com.au"
        },
        {
          "country_code": "ca",
          "url": "https://logistics-st.foodora.ca"
        },
        {
          "country_code": "de",
          "url": "https://logistics-st.foodora.de"
        },
        {
          "country_code": "fi",
          "url": "https://logistics-st.foodora.fi"
        },
        {
          "country_code": "fr",
          "url": "https://logistics-st.foodora.fr"
        },
        {
          "country_code": "it",
          "url": "https://logistics-st.foodora.it"
        },
        {
          "country_code": "nl",
          "url": "https://logistics-st.foodora.nl"
        },
        {
          "country_code": "no",
          "url": "https://logistics-st.foodora.no"
        },
        {
          "country_code": "se",
          "url": "https://logistics-st.foodora.se"
        }
      ]
    },
    {
      "brand": "foodpanda",
      "countries": [
        {
          "country_code": "hk",
          "url": "https://logistics-st.foodora.hk"
        },
        {
          "country_code": "sg",
          "url": "https://logistics-st.foodora.sg"
        },
        {
          "country_code": "tw",
          "url": "https://logistics-st-tw.foodora.tech"
        }
      ]
    },
    {
      "brand": "ClickDelivery",
      "countries": [
        {
          "country_code": "co",
          "url": "https://logistics-st-co.foodora.tech"
        },
        {
          "country_code": "ec",
          "url": "https://logistics-st.foodora.ec"
        }
      ]
    },
    {
      "brand": "Mjam",
      "countries": [
        {
          "country_code": "at",
          "url": "https://logistics-st.foodora.at"
        }
      ]
    },
    {
      "brand": "talabat",
      "countries": [
        {
          "country_code": "ae",
          "url": "https://logistics-st.foodora.ae"
        },
        {
          "country_code": "kw",
          "url": "https://logistics-st-kw.foodora.tech"
        }
      ]
    },
    {
      "brand": "DameJidlo",
      "countries": [
        {
          "country_code": "cz",
          "url": "https://logistics-st-cz.foodora.tech"
        }
      ]
    },
    {
      "brand": "PedidosYa",
      "countries": [
        {
          "country_code": "cl",
          "url": "https://logistics-st.foodora.cl"
        },
        {
          "country_code": "uy",
          "url": "https://logistics-st.foodora.uy"
        }
      ]
    }
  ]
}
